Homework 8
…
head(clean_bike_data$Date)

[1] "2017-12-01" "2017-12-01" "2017-12-01" "2017-12-01" "2017-12-01"
[6] "2017-12-01"

Now we adjust the remaining char type variables to factors.

clean_bike_data$Seasons <- as.factor(clean_bike_data$Seasons)
clean_bike_data$Holiday <- as.factor(clean_bike_data$Holiday)
clean_bike_data$`Functioning Day` <- as.factor(clean_bike_data$`Functioning Day`)

clean_bike_data |> select(c(Seasons, Holiday, `Functioning Day`))

# A tibble: 8,760 × 3
   Seasons Holiday    `Functioning Day`
   <fct>   <fct>      <fct>            
 1 Winter  No Holiday Yes              
 2 Winter  No Holiday Yes              
 3 Winter  No Holiday Yes              
 4 Winter  No Holiday Yes              
 5 Winter  No Holiday Yes              
 6 Winter  No Holiday Yes              
 7 Winter  No Holiday Yes              
 8 Winter  No Holiday Yes              
 9 Winter  No Holiday Yes              
10 Winter  No Holiday Yes              
# ℹ 8,750 more rows
…
